<?xml version="1.0" encoding="UTF-8"?>
<gpx
  version="1.0"
  creator="GPSBabel - http://www.gpsbabel.org"
  xmlns:xsi="http://www.w3.org/2001/XMLSchema-instance"
  xmlns="http://www.topografix.com/GPX/1/0"
  xsi:schemaLocation="http://www.topografix.com/GPX/1/0 http://www.topografix.com/GPX/1/0/gpx.xsd">
<time>1970-01-01T00:00:00Z</time>
<bounds minlat="37.507930994" minlon="-122.292645574" maxlat="37.538625002" maxlon="-122.258695364"/>
<wpt lat="37.538136244" lon="-122.291540504">
  <ele>2.000000</ele>
  <name>HairDash0</name>
  <cmt>HairDash0</cmt>
  <desc>HairDash0</desc>
</wpt>
<wpt lat="37.535985708" lon="-122.291663289">
  <ele>3.000000</ele>
  <name>ThinDash0</name>
  <cmt>ThinDash0</cmt>
  <desc>ThinDash0</desc>
</wpt>
<wpt lat="37.533444166" lon="-122.292031646">
  <ele>4.000000</ele>
  <name>RedHair0</name>
  <cmt>RedHair0</cmt>
  <desc>RedHair0</desc>
</wpt>
<wpt lat="37.530853748" lon="-122.292277217">
  <ele>8.000000</ele>
  <name>RedThin0</name>
  <cmt>RedThin0</cmt>
  <desc>RedThin0</desc>
</wpt>
<wpt lat="37.528654337" lon="-122.292584181">
  <ele>21.000000</ele>
  <name>RedMed0</name>
  <cmt>RedMed0</cmt>
  <desc>RedMed0</desc>
</wpt>
<wpt lat="37.524988651" lon="-122.292645574">
  <ele>64.000000</ele>
  <name>RedThick0</name>
  <cmt>RedThick0</cmt>
  <desc>RedThick0</desc>
</wpt>
<wpt lat="37.520198822" lon="-122.292093039">
  <ele>125.000000</ele>
  <name>YellowMed0</name>
  <cmt>YellowMed0</cmt>
  <desc>YellowMed0</desc>
</wpt>
<wpt lat="37.517950535" lon="-122.291847467">
  <ele>61.000000</ele>
  <name>GreenMed0</name>
  <cmt>GreenMed0</cmt>
  <desc>GreenMed0</desc>
</wpt>
<wpt lat="37.515653372" lon="-122.291970253">
  <ele>39.000000</ele>
  <name>BlueMed0</name>
  <cmt>BlueMed0</cmt>
  <desc>BlueMed0</desc>
</wpt>
<wpt lat="37.513160706" lon="-122.291110754">
  <ele>37.000000</ele>
  <name>PurpleMed0</name>
  <cmt>PurpleMed0</cmt>
  <desc>PurpleMed0</desc>
</wpt>
<wpt lat="37.510277033" lon="-122.291356325">
  <ele>59.000000</ele>
  <name>BlackMed0</name>
  <cmt>BlackMed0</cmt>
  <desc>BlackMed0</desc>
</wpt>
<wpt lat="37.508028746" lon="-122.291724682">
  <ele>49.000000</ele>
  <name>WhiteMed0</name>
  <cmt>WhiteMed0</cmt>
  <desc>WhiteMed0</desc>
</wpt>
<wpt lat="37.522060037" lon="-122.277670026">
  <name>NOTE 1</name>
  <cmt>12 test lines - see notes with GPX sample!!four line widths for solid redtwo line widths for dashed redseven colors for medium widthNote that line names have nothing at all to do with line style attributes! These are named for convenient cross-reference,   but keep in mind that &quot;red med&quot; is a line label and &quot;Red Medium&quot; is a style label.Waypoints are generated by Topo to exactly match the first track point.Apparently only GPX and KML output from GPSBabel retain track descriptions??</cmt>
  <desc>12 test lines - see notes with GPX sample!!four line widths for solid redtwo line widths for dashed redseven colors for medium widthNote that line names have nothing at all to do with line style attributes! These are named for convenient cross-reference,   but keep in mind that &quot;red med&quot; is a line label and &quot;Red Medium&quot; is a style label.Waypoints are generated by Topo to exactly match the first track point.Apparently only GPX and KML output from GPSBabel retain track descriptions??</desc>
</wpt>
<wpt lat="37.522349358" lon="-122.284910083">
  <name>NOTE 2</name>
  <cmt>how GPX from GPSBabel shows Topo track desc as of 2012:(line name and line style are NOT related to actual color or width)&lt;trk&gt;  &lt;name&gt;red line&lt;/name&gt;  &lt;desc&gt;Style=red med, Width=3, Dashed=0, Color=#ff0000&lt;/desc&gt;&lt;number&gt;1&lt;/number&gt;&lt;trkseg&gt;...(Topo menu colors are stored in the file as web-style hex RGB)  Red=#ff0000, Yellow=#ffff00, Green=#008000, Blue=#000080,  Purple=#800080, Black=#000000, White=#ffffff(Topo solid  line widths: Hairline=1, Thin=2, Medium=3, Thick=4)(Topo dashed line widths: Hairline=1, Thin=2)SRE&apos;s tpo.c mod stuffs Style/Width/Dashed/Color fields into &quot;desc&quot; field  under the assumption that something will post-process GPX or KML output  and move information from desc to private extensions(solid  lines have &quot;Dashed=0&quot;, can have width of 1=hairline to 4=thick)(dashed lines have &quot;Dashed=1&quot;, can only have width of 1=hairline or 2=thin)</cmt>
  <desc>how GPX from GPSBabel shows Topo track desc as of 2012:(line name and line style are NOT related to actual color or width)&lt;trk&gt;  &lt;name&gt;red line&lt;/name&gt;  &lt;desc&gt;Style=red med, Width=3, Dashed=0, Color=#ff0000&lt;/desc&gt;&lt;number&gt;1&lt;/number&gt;&lt;trkseg&gt;...(Topo menu colors are stored in the file as web-style hex RGB)  Red=#ff0000, Yellow=#ffff00, Green=#008000, Blue=#000080,  Purple=#800080, Black=#000000, White=#ffffff(Topo solid  line widths: Hairline=1, Thin=2, Medium=3, Thick=4)(Topo dashed line widths: Hairline=1, Thin=2)SRE&apos;s tpo.c mod stuffs Style/Width/Dashed/Color fields into &quot;desc&quot; field  under the assumption that something will post-process GPX or KML output  and move information from desc to private extensions(solid  lines have &quot;Dashed=0&quot;, can have width of 1=hairline to 4=thick)(dashed lines have &quot;Dashed=1&quot;, can only have width of 1=hairline or 2=thin)</desc>
</wpt>
<wpt lat="37.522691488" lon="-122.288962007">
  <name>NOTE 3</name>
  <cmt>how KML from GPSBabel shows Topo track desc as of 2012:(see important notes with GPX sample, all of them apply here!)(note that GPSBabel forces all track styles to be the same - why?)    &lt;Folder&gt;      &lt;name&gt;Tracks&lt;/name&gt;      &lt;Folder&gt;        &lt;name&gt;red line&lt;/name&gt;        &lt;snippet/&gt;        &lt;description&gt;&lt;![CDATA[&lt;table&gt;            &lt;tr&gt;&lt;td&gt;&lt;b&gt;Description&lt;/b&gt; Style=Red Medium, Width=3, Dashed=0, Color=#ff0000 &lt;/td&gt;&lt;/tr&gt;            &lt;tr&gt;&lt;td&gt;&lt;b&gt;Distance&lt;/b&gt; 1.3 mi &lt;/td&gt;&lt;/tr&gt;          &lt;/table&gt;]]&gt;        &lt;/description&gt;        &lt;Folder&gt;          &lt;name&gt;Points&lt;/name&gt;          &lt;Placemark&gt;            &lt;name&gt;red line-0&lt;/name&gt;...</cmt>
  <desc>how KML from GPSBabel shows Topo track desc as of 2012:(see important notes with GPX sample, all of them apply here!)(note that GPSBabel forces all track styles to be the same - why?)    &lt;Folder&gt;      &lt;name&gt;Tracks&lt;/name&gt;      &lt;Folder&gt;        &lt;name&gt;red line&lt;/name&gt;        &lt;snippet/&gt;        &lt;description&gt;&lt;![CDATA[&lt;table&gt;            &lt;tr&gt;&lt;td&gt;&lt;b&gt;Description&lt;/b&gt; Style=Red Medium, Width=3, Dashed=0, Color=#ff0000 &lt;/td&gt;&lt;/tr&gt;            &lt;tr&gt;&lt;td&gt;&lt;b&gt;Distance&lt;/b&gt; 1.3 mi &lt;/td&gt;&lt;/tr&gt;          &lt;/table&gt;]]&gt;        &lt;/description&gt;        &lt;Folder&gt;          &lt;name&gt;Points&lt;/name&gt;          &lt;Placemark&gt;            &lt;name&gt;red line-0&lt;/name&gt;...</desc>
</wpt>
<wpt lat="37.522104979" lon="-122.272938490">
  <name>NOTE 4</name>
  <cmt>how MapSource 6.16.3 adds color to a track as of 2012:(color choices are Dark Gray, Red, Green, Yellow, Blue, Magenta, Cyan, White, Transparent)(should be easy to turn desc tag into their extension, but better to directly write track styles)  &lt;trk&gt;    &lt;name&gt;Hwy 50 from Placerville&lt;/name&gt;    &lt;extensions&gt;      &lt;gpxx:TrackExtension xmlns:gpxx=&quot;http://www.garmin.com/xmlschemas/GpxExtensions/v3&quot;&gt;        &lt;gpxx:DisplayColor&gt;Red&lt;/gpxx:DisplayColor&gt;      &lt;/gpxx:TrackExtension&gt;    &lt;/extensions&gt;    &lt;trkseg&gt;...</cmt>
  <desc>how MapSource 6.16.3 adds color to a track as of 2012:(color choices are Dark Gray, Red, Green, Yellow, Blue, Magenta, Cyan, White, Transparent)(should be easy to turn desc tag into their extension, but better to directly write track styles)  &lt;trk&gt;    &lt;name&gt;Hwy 50 from Placerville&lt;/name&gt;    &lt;extensions&gt;      &lt;gpxx:TrackExtension xmlns:gpxx=&quot;http://www.garmin.com/xmlschemas/GpxExtensions/v3&quot;&gt;        &lt;gpxx:DisplayColor&gt;Red&lt;/gpxx:DisplayColor&gt;      &lt;/gpxx:TrackExtension&gt;    &lt;/extensions&gt;    &lt;trkseg&gt;...</desc>
</wpt>
<trk>
  <name>red thick</name>
  <desc>Style=Red Thick, Width=4, Dashed=0, Color=#ff0000</desc>
<number>1</number>
<trkseg>
<trkpt lat="37.524988651" lon="-122.292645574">
</trkpt>
<trkpt lat="37.524988651" lon="-122.292277217">
</trkpt>
<trkpt lat="37.524890900" lon="-122.291908860">
</trkpt>
<trkpt lat="37.524842024" lon="-122.291540504">
</trkpt>
<trkpt lat="37.524842024" lon="-122.291172147">
</trkpt>
<trkpt lat="37.524842024" lon="-122.290803790">
</trkpt>
<trkpt lat="37.524793148" lon="-122.290435433">
</trkpt>
<trkpt lat="37.524793148" lon="-122.290005684">
</trkpt>
<trkpt lat="37.524793148" lon="-122.289575934">
</trkpt>
<trkpt lat="37.524793148" lon="-122.289207578">
</trkpt>
<trkpt lat="37.524744272" lon="-122.288839221">
</trkpt>
<trkpt lat="37.524744272" lon="-122.288409472">
</trkpt>
<trkpt lat="37.524744272" lon="-122.287918329">
</trkpt>
<trkpt lat="37.524744272" lon="-122.287427187">
</trkpt>
<trkpt lat="37.524744272" lon="-122.286936045">
</trkpt>
<trkpt lat="37.524695396" lon="-122.286567688">
</trkpt>
<trkpt lat="37.524695396" lon="-122.286137938">
</trkpt>
<trkpt lat="37.524695396" lon="-122.285708189">
</trkpt>
<trkpt lat="37.524695396" lon="-122.285339832">
</trkpt>
<trkpt lat="37.524695396" lon="-122.284787297">
</trkpt>
<trkpt lat="37.524695396" lon="-122.284418941">
</trkpt>
<trkpt lat="37.524695396" lon="-122.283927798">
</trkpt>
<trkpt lat="37.524646521" lon="-122.283498049">
</trkpt>
<trkpt lat="37.524646521" lon="-122.283068299">
</trkpt>
<trkpt lat="37.524646521" lon="-122.282577157">
</trkpt>
<trkpt lat="37.524646521" lon="-122.282147408">
</trkpt>
<trkpt lat="37.524646521" lon="-122.281717658">
</trkpt>
<trkpt lat="37.524646521" lon="-122.281287909">
</trkpt>
<trkpt lat="37.524646521" lon="-122.280796766">
</trkpt>
<trkpt lat="37.524695396" lon="-122.280367017">
</trkpt>
<trkpt lat="37.524695396" lon="-122.279875875">
</trkpt>
<trkpt lat="37.524695396" lon="-122.279446125">
</trkpt>
<trkpt lat="37.524695396" lon="-122.278893590">
</trkpt>
<trkpt lat="37.524695396" lon="-122.278463840">
</trkpt>
<trkpt lat="37.524695396" lon="-122.277972698">
</trkpt>
<trkpt lat="37.524744272" lon="-122.277542949">
</trkpt>
<trkpt lat="37.524744272" lon="-122.277051806">
</trkpt>
<trkpt lat="37.524744272" lon="-122.276622057">
</trkpt>
<trkpt lat="37.524744272" lon="-122.276130915">
</trkpt>
<trkpt lat="37.524793148" lon="-122.275762558">
</trkpt>
<trkpt lat="37.524793148" lon="-122.275394201">
</trkpt>
<trkpt lat="37.524793148" lon="-122.274964452">
</trkpt>
<trkpt lat="37.524793148" lon="-122.274534702">
</trkpt>
<trkpt lat="37.524793148" lon="-122.274166346">
</trkpt>
<trkpt lat="37.524793148" lon="-122.273736596">
</trkpt>
<trkpt lat="37.524793148" lon="-122.273368239">
</trkpt>
<trkpt lat="37.524793148" lon="-122.272938490">
</trkpt>
<trkpt lat="37.524793148" lon="-122.272447348">
</trkpt>
<trkpt lat="37.524793148" lon="-122.272078991">
</trkpt>
<trkpt lat="37.524744272" lon="-122.271587849">
</trkpt>
<trkpt lat="37.524744272" lon="-122.271158099">
</trkpt>
<trkpt lat="37.524695396" lon="-122.270666957">
</trkpt>
<trkpt lat="37.524695396" lon="-122.270237207">
</trkpt>
<trkpt lat="37.524646521" lon="-122.269684672">
</trkpt>
<trkpt lat="37.524597645" lon="-122.269193530">
</trkpt>
<trkpt lat="37.524548769" lon="-122.268763781">
</trkpt>
<trkpt lat="37.524548769" lon="-122.268272638">
</trkpt>
<trkpt lat="37.524499893" lon="-122.267842889">
</trkpt>
<trkpt lat="37.524402142" lon="-122.267351747">
</trkpt>
<trkpt lat="37.524402142" lon="-122.266921997">
</trkpt>
<trkpt lat="37.524402142" lon="-122.266553640">
</trkpt>
<trkpt lat="37.524402142" lon="-122.266185284">
</trkpt>
<trkpt lat="37.524402142" lon="-122.265816927">
</trkpt>
<trkpt lat="37.524353266" lon="-122.265448570">
</trkpt>
<trkpt lat="37.524353266" lon="-122.265080214">
</trkpt>
<trkpt lat="37.524353266" lon="-122.264711857">
</trkpt>
<trkpt lat="37.524353266" lon="-122.264282107">
</trkpt>
<trkpt lat="37.524304390" lon="-122.263913751">
</trkpt>
<trkpt lat="37.524304390" lon="-122.263422608">
</trkpt>
<trkpt lat="37.524353266" lon="-122.263054252">
</trkpt>
<trkpt lat="37.524402142" lon="-122.262685895">
</trkpt>
<trkpt lat="37.524451017" lon="-122.262317538">
</trkpt>
</trkseg>
</trk>
<trk>
  <name>yellow med</name>
  <desc>Style=Yellow Medium, Width=3, Dashed=0, Color=#ffff00</desc>
<number>2</number>
<trkseg>
<trkpt lat="37.520198822" lon="-122.292093039">
</trkpt>
<trkpt lat="37.520198822" lon="-122.291724682">
</trkpt>
<trkpt lat="37.520247698" lon="-122.291294932">
</trkpt>
<trkpt lat="37.520247698" lon="-122.290926576">
</trkpt>
<trkpt lat="37.520247698" lon="-122.290558219">
</trkpt>
<trkpt lat="37.520198822" lon="-122.290189862">
</trkpt>
<trkpt lat="37.520198822" lon="-122.289821506">
</trkpt>
<trkpt lat="37.520198822" lon="-122.289146185">
</trkpt>
<trkpt lat="37.520198822" lon="-122.288716435">
</trkpt>
<trkpt lat="37.520198822" lon="-122.288286686">
</trkpt>
<trkpt lat="37.520198822" lon="-122.287795544">
</trkpt>
<trkpt lat="37.520198822" lon="-122.287304401">
</trkpt>
<trkpt lat="37.520198822" lon="-122.286813259">
</trkpt>
<trkpt lat="37.520198822" lon="-122.286260724">
</trkpt>
<trkpt lat="37.520198822" lon="-122.285708189">
</trkpt>
<trkpt lat="37.520198822" lon="-122.285094261">
</trkpt>
<trkpt lat="37.520149946" lon="-122.284541726">
</trkpt>
<trkpt lat="37.520149946" lon="-122.283989191">
</trkpt>
<trkpt lat="37.520149946" lon="-122.283375263">
</trkpt>
<trkpt lat="37.520149946" lon="-122.282822728">
</trkpt>
<trkpt lat="37.520149946" lon="-122.282454371">
</trkpt>
<trkpt lat="37.520149946" lon="-122.281901836">
</trkpt>
<trkpt lat="37.520149946" lon="-122.281349301">
</trkpt>
<trkpt lat="37.520149946" lon="-122.280796766">
</trkpt>
<trkpt lat="37.520149946" lon="-122.280305624">
</trkpt>
<trkpt lat="37.520149946" lon="-122.279814482">
</trkpt>
<trkpt lat="37.520149946" lon="-122.279261947">
</trkpt>
<trkpt lat="37.520149946" lon="-122.278770804">
</trkpt>
<trkpt lat="37.520149946" lon="-122.278341055">
</trkpt>
<trkpt lat="37.520198822" lon="-122.277849913">
</trkpt>
<trkpt lat="37.520198822" lon="-122.277358770">
</trkpt>
<trkpt lat="37.520198822" lon="-122.276929021">
</trkpt>
<trkpt lat="37.520198822" lon="-122.276560664">
</trkpt>
<trkpt lat="37.520198822" lon="-122.276069522">
</trkpt>
<trkpt lat="37.520247698" lon="-122.275639772">
</trkpt>
<trkpt lat="37.520247698" lon="-122.275210023">
</trkpt>
<trkpt lat="37.520247698" lon="-122.274841666">
</trkpt>
<trkpt lat="37.520247698" lon="-122.274411917">
</trkpt>
<trkpt lat="37.520247698" lon="-122.274043560">
</trkpt>
<trkpt lat="37.520247698" lon="-122.273552418">
</trkpt>
<trkpt lat="37.520247698" lon="-122.273184061">
</trkpt>
<trkpt lat="37.520247698" lon="-122.272754312">
</trkpt>
<trkpt lat="37.520247698" lon="-122.272324562">
</trkpt>
<trkpt lat="37.520198822" lon="-122.271956205">
</trkpt>
<trkpt lat="37.520198822" lon="-122.271587849">
</trkpt>
<trkpt lat="37.520198822" lon="-122.271219492">
</trkpt>
<trkpt lat="37.520198822" lon="-122.270851135">
</trkpt>
<trkpt lat="37.520149946" lon="-122.270482779">
</trkpt>
<trkpt lat="37.520101070" lon="-122.270114422">
</trkpt>
<trkpt lat="37.520101070" lon="-122.269746065">
</trkpt>
<trkpt lat="37.520101070" lon="-122.269377708">
</trkpt>
<trkpt lat="37.520101070" lon="-122.269009352">
</trkpt>
<trkpt lat="37.520101070" lon="-122.268640995">
</trkpt>
<trkpt lat="37.520101070" lon="-122.268272638">
</trkpt>
<trkpt lat="37.520052195" lon="-122.267904282">
</trkpt>
<trkpt lat="37.520052195" lon="-122.267535925">
</trkpt>
<trkpt lat="37.520052195" lon="-122.267167568">
</trkpt>
<trkpt lat="37.520052195" lon="-122.266799212">
</trkpt>
<trkpt lat="37.520052195" lon="-122.266430855">
</trkpt>
<trkpt lat="37.520052195" lon="-122.266062498">
</trkpt>
<trkpt lat="37.520052195" lon="-122.265694141">
</trkpt>
<trkpt lat="37.520101070" lon="-122.265325785">
</trkpt>
<trkpt lat="37.520149946" lon="-122.264957428">
</trkpt>
<trkpt lat="37.520198822" lon="-122.264589071">
</trkpt>
<trkpt lat="37.520198822" lon="-122.264220715">
</trkpt>
<trkpt lat="37.520198822" lon="-122.263852358">
</trkpt>
<trkpt lat="37.520198822" lon="-122.263484001">
</trkpt>
<trkpt lat="37.520198822" lon="-122.263115644">
</trkpt>
<trkpt lat="37.520198822" lon="-122.262747288">
</trkpt>
</trkseg>
</trk>
<trk>
  <name>blue med</name>
  <desc>Style=Blue Medium, Width=3, Dashed=0, Color=#000080</desc>
<number>3</number>
<trkseg>
<trkpt lat="37.515653372" lon="-122.291970253">
</trkpt>
<trkpt lat="37.515751123" lon="-122.291601896">
</trkpt>
<trkpt lat="37.515799999" lon="-122.291233540">
</trkpt>
<trkpt lat="37.515799999" lon="-122.290865183">
</trkpt>
<trkpt lat="37.515799999" lon="-122.290496826">
</trkpt>
<trkpt lat="37.515799999" lon="-122.290128469">
</trkpt>
<trkpt lat="37.515799999" lon="-122.289698720">
</trkpt>
<trkpt lat="37.515751123" lon="-122.289268970">
</trkpt>
<trkpt lat="37.515653372" lon="-122.288900614">
</trkpt>
<trkpt lat="37.515653372" lon="-122.288470864">
</trkpt>
<trkpt lat="37.515604496" lon="-122.288041115">
</trkpt>
<trkpt lat="37.515604496" lon="-122.287672758">
</trkpt>
<trkpt lat="37.515604496" lon="-122.287181616">
</trkpt>
<trkpt lat="37.515604496" lon="-122.286751866">
</trkpt>
<trkpt lat="37.515604496" lon="-122.286383510">
</trkpt>
<trkpt lat="37.515604496" lon="-122.286015153">
</trkpt>
<trkpt lat="37.515604496" lon="-122.285646796">
</trkpt>
<trkpt lat="37.515604496" lon="-122.285278440">
</trkpt>
<trkpt lat="37.515604496" lon="-122.284910083">
</trkpt>
<trkpt lat="37.515604496" lon="-122.284541726">
</trkpt>
<trkpt lat="37.515604496" lon="-122.284173369">
</trkpt>
<trkpt lat="37.515604496" lon="-122.283805013">
</trkpt>
<trkpt lat="37.515604496" lon="-122.283436656">
</trkpt>
<trkpt lat="37.515604496" lon="-122.283068299">
</trkpt>
<trkpt lat="37.515653372" lon="-122.282638550">
</trkpt>
<trkpt lat="37.515653372" lon="-122.282208800">
</trkpt>
<trkpt lat="37.515702248" lon="-122.281840444">
</trkpt>
<trkpt lat="37.515799999" lon="-122.281410694">
</trkpt>
<trkpt lat="37.515799999" lon="-122.280980945">
</trkpt>
<trkpt lat="37.515799999" lon="-122.280612588">
</trkpt>
<trkpt lat="37.515799999" lon="-122.280182838">
</trkpt>
<trkpt lat="37.515799999" lon="-122.279814482">
</trkpt>
<trkpt lat="37.515848875" lon="-122.279384732">
</trkpt>
<trkpt lat="37.515848875" lon="-122.278954983">
</trkpt>
<trkpt lat="37.515848875" lon="-122.278525233">
</trkpt>
<trkpt lat="37.515848875" lon="-122.278156877">
</trkpt>
<trkpt lat="37.515848875" lon="-122.277788520">
</trkpt>
<trkpt lat="37.515848875" lon="-122.277358770">
</trkpt>
<trkpt lat="37.515848875" lon="-122.276929021">
</trkpt>
<trkpt lat="37.515848875" lon="-122.276560664">
</trkpt>
<trkpt lat="37.515848875" lon="-122.276069522">
</trkpt>
<trkpt lat="37.515848875" lon="-122.275578380">
</trkpt>
<trkpt lat="37.515848875" lon="-122.275087237">
</trkpt>
<trkpt lat="37.515848875" lon="-122.274657488">
</trkpt>
<trkpt lat="37.515848875" lon="-122.274289131">
</trkpt>
<trkpt lat="37.515848875" lon="-122.273920774">
</trkpt>
<trkpt lat="37.515799999" lon="-122.273552418">
</trkpt>
<trkpt lat="37.515799999" lon="-122.273122668">
</trkpt>
<trkpt lat="37.515799999" lon="-122.272754312">
</trkpt>
<trkpt lat="37.515799999" lon="-122.272263169">
</trkpt>
<trkpt lat="37.515799999" lon="-122.271894813">
</trkpt>
<trkpt lat="37.515799999" lon="-122.271465063">
</trkpt>
<trkpt lat="37.515799999" lon="-122.270973921">
</trkpt>
<trkpt lat="37.515751123" lon="-122.270605564">
</trkpt>
<trkpt lat="37.515702248" lon="-122.270237207">
</trkpt>
<trkpt lat="37.515653372" lon="-122.269868851">
</trkpt>
<trkpt lat="37.515653372" lon="-122.269500494">
</trkpt>
<trkpt lat="37.515653372" lon="-122.269132137">
</trkpt>
<trkpt lat="37.515604496" lon="-122.268763781">
</trkpt>
<trkpt lat="37.515604496" lon="-122.268395424">
</trkpt>
<trkpt lat="37.515604496" lon="-122.268027067">
</trkpt>
<trkpt lat="37.515604496" lon="-122.267658710">
</trkpt>
<trkpt lat="37.515604496" lon="-122.267290354">
</trkpt>
<trkpt lat="37.515604496" lon="-122.266921997">
</trkpt>
<trkpt lat="37.515604496" lon="-122.266553640">
</trkpt>
<trkpt lat="37.515604496" lon="-122.266185284">
</trkpt>
<trkpt lat="37.515604496" lon="-122.265816927">
</trkpt>
<trkpt lat="37.515604496" lon="-122.265448570">
</trkpt>
<trkpt lat="37.515653372" lon="-122.265080214">
</trkpt>
<trkpt lat="37.515702248" lon="-122.264711857">
</trkpt>
<trkpt lat="37.515702248" lon="-122.264343500">
</trkpt>
<trkpt lat="37.515702248" lon="-122.263975143">
</trkpt>
<trkpt lat="37.515751123" lon="-122.263606787">
</trkpt>
</trkseg>
</trk>
<trk>
  <name>black med</name>
  <desc>Style=Black Medium, Width=3, Dashed=0, Color=#000000</desc>
<number>4</number>
<trkseg>
<trkpt lat="37.510277033" lon="-122.291356325">
</trkpt>
<trkpt lat="37.510423660" lon="-122.290987968">
</trkpt>
<trkpt lat="37.510472536" lon="-122.290619612">
</trkpt>
<trkpt lat="37.510472536" lon="-122.290251255">
</trkpt>
<trkpt lat="37.510472536" lon="-122.289821506">
</trkpt>
<trkpt lat="37.510472536" lon="-122.289453149">
</trkpt>
<trkpt lat="37.510472536" lon="-122.289084792">
</trkpt>
<trkpt lat="37.510472536" lon="-122.288716435">
</trkpt>
<trkpt lat="37.510472536" lon="-122.288286686">
</trkpt>
<trkpt lat="37.510472536" lon="-122.287918329">
</trkpt>
<trkpt lat="37.510472536" lon="-122.287488580">
</trkpt>
<trkpt lat="37.510472536" lon="-122.286997437">
</trkpt>
<trkpt lat="37.510472536" lon="-122.286629081">
</trkpt>
<trkpt lat="37.510472536" lon="-122.286260724">
</trkpt>
<trkpt lat="37.510472536" lon="-122.285892367">
</trkpt>
<trkpt lat="37.510472536" lon="-122.285462618">
</trkpt>
<trkpt lat="37.510472536" lon="-122.285032868">
</trkpt>
<trkpt lat="37.510472536" lon="-122.284541726">
</trkpt>
<trkpt lat="37.510472536" lon="-122.284050584">
</trkpt>
<trkpt lat="37.510472536" lon="-122.283498049">
</trkpt>
<trkpt lat="37.510472536" lon="-122.282945514">
</trkpt>
<trkpt lat="37.510423660" lon="-122.282331586">
</trkpt>
<trkpt lat="37.510423660" lon="-122.281717658">
</trkpt>
<trkpt lat="37.510423660" lon="-122.281165123">
</trkpt>
<trkpt lat="37.510423660" lon="-122.280612588">
</trkpt>
<trkpt lat="37.510423660" lon="-122.280244231">
</trkpt>
<trkpt lat="37.510423660" lon="-122.279691696">
</trkpt>
<trkpt lat="37.510423660" lon="-122.279139161">
</trkpt>
<trkpt lat="37.510423660" lon="-122.278586626">
</trkpt>
<trkpt lat="37.510423660" lon="-122.278034091">
</trkpt>
<trkpt lat="37.510423660" lon="-122.277481556">
</trkpt>
<trkpt lat="37.510423660" lon="-122.276990414">
</trkpt>
<trkpt lat="37.510423660" lon="-122.276437879">
</trkpt>
<trkpt lat="37.510423660" lon="-122.275946736">
</trkpt>
<trkpt lat="37.510423660" lon="-122.275394201">
</trkpt>
<trkpt lat="37.510423660" lon="-122.274903059">
</trkpt>
<trkpt lat="37.510423660" lon="-122.274350524">
</trkpt>
<trkpt lat="37.510423660" lon="-122.273797989">
</trkpt>
<trkpt lat="37.510423660" lon="-122.273245454">
</trkpt>
<trkpt lat="37.510423660" lon="-122.272692919">
</trkpt>
<trkpt lat="37.510374784" lon="-122.272140384">
</trkpt>
<trkpt lat="37.510325909" lon="-122.271587849">
</trkpt>
<trkpt lat="37.510325909" lon="-122.271096706">
</trkpt>
<trkpt lat="37.510277033" lon="-122.270605564">
</trkpt>
<trkpt lat="37.510277033" lon="-122.270114422">
</trkpt>
<trkpt lat="37.510277033" lon="-122.269623280">
</trkpt>
<trkpt lat="37.510277033" lon="-122.269193530">
</trkpt>
<trkpt lat="37.510277033" lon="-122.268702388">
</trkpt>
<trkpt lat="37.510277033" lon="-122.268272638">
</trkpt>
<trkpt lat="37.510277033" lon="-122.267842889">
</trkpt>
<trkpt lat="37.510277033" lon="-122.267474532">
</trkpt>
<trkpt lat="37.510277033" lon="-122.267044783">
</trkpt>
<trkpt lat="37.510277033" lon="-122.266676426">
</trkpt>
<trkpt lat="37.510277033" lon="-122.266185284">
</trkpt>
<trkpt lat="37.510277033" lon="-122.265816927">
</trkpt>
<trkpt lat="37.510277033" lon="-122.265325785">
</trkpt>
<trkpt lat="37.510277033" lon="-122.264896035">
</trkpt>
<trkpt lat="37.510277033" lon="-122.264466286">
</trkpt>
<trkpt lat="37.510277033" lon="-122.264036536">
</trkpt>
<trkpt lat="37.510277033" lon="-122.263668180">
</trkpt>
<trkpt lat="37.510277033" lon="-122.263299823">
</trkpt>
<trkpt lat="37.510277033" lon="-122.262931466">
</trkpt>
<trkpt lat="37.510277033" lon="-122.262563109">
</trkpt>
<trkpt lat="37.510228157" lon="-122.262194753">
</trkpt>
<trkpt lat="37.510179281" lon="-122.261826396">
</trkpt>
<trkpt lat="37.510130405" lon="-122.261458039">
</trkpt>
<trkpt lat="37.510081530" lon="-122.261089683">
</trkpt>
<trkpt lat="37.510032654" lon="-122.260721326">
</trkpt>
<trkpt lat="37.510032654" lon="-122.260352969">
</trkpt>
</trkseg>
</trk>
<trk>
  <name>red med</name>
  <desc>Style=Red Medium, Width=3, Dashed=0, Color=#ff0000</desc>
<number>5</number>
<trkseg>
<trkpt lat="37.528654337" lon="-122.292584181">
</trkpt>
<trkpt lat="37.528654337" lon="-122.292215824">
</trkpt>
<trkpt lat="37.528654337" lon="-122.291786075">
</trkpt>
<trkpt lat="37.528654337" lon="-122.291417718">
</trkpt>
<trkpt lat="37.528654337" lon="-122.290987968">
</trkpt>
<trkpt lat="37.528654337" lon="-122.290496826">
</trkpt>
<trkpt lat="37.528654337" lon="-122.290128469">
</trkpt>
<trkpt lat="37.528654337" lon="-122.289760113">
</trkpt>
<trkpt lat="37.528654337" lon="-122.289268970">
</trkpt>
<trkpt lat="37.528654337" lon="-122.288900614">
</trkpt>
<trkpt lat="37.528654337" lon="-122.288348079">
</trkpt>
<trkpt lat="37.528654337" lon="-122.287918329">
</trkpt>
<trkpt lat="37.528654337" lon="-122.287427187">
</trkpt>
<trkpt lat="37.528654337" lon="-122.286936045">
</trkpt>
<trkpt lat="37.528654337" lon="-122.286444902">
</trkpt>
<trkpt lat="37.528703213" lon="-122.285953760">
</trkpt>
<trkpt lat="37.528703213" lon="-122.285401225">
</trkpt>
<trkpt lat="37.528752089" lon="-122.284848690">
</trkpt>
<trkpt lat="37.528800964" lon="-122.284296155">
</trkpt>
<trkpt lat="37.528800964" lon="-122.283805013">
</trkpt>
<trkpt lat="37.528800964" lon="-122.283252478">
</trkpt>
<trkpt lat="37.528800964" lon="-122.282761335">
</trkpt>
<trkpt lat="37.528849840" lon="-122.282270193">
</trkpt>
<trkpt lat="37.528947592" lon="-122.281779051">
</trkpt>
<trkpt lat="37.528947592" lon="-122.281226516">
</trkpt>
<trkpt lat="37.528947592" lon="-122.280796766">
</trkpt>
<trkpt lat="37.528947592" lon="-122.280305624">
</trkpt>
<trkpt lat="37.528996468" lon="-122.279814482">
</trkpt>
<trkpt lat="37.529045343" lon="-122.279323339">
</trkpt>
<trkpt lat="37.529094219" lon="-122.278893590">
</trkpt>
<trkpt lat="37.529094219" lon="-122.278402448">
</trkpt>
<trkpt lat="37.529094219" lon="-122.277911305">
</trkpt>
<trkpt lat="37.529191971" lon="-122.277481556">
</trkpt>
<trkpt lat="37.529191971" lon="-122.277051806">
</trkpt>
<trkpt lat="37.529191971" lon="-122.276560664">
</trkpt>
<trkpt lat="37.529191971" lon="-122.276069522">
</trkpt>
<trkpt lat="37.529191971" lon="-122.275639772">
</trkpt>
<trkpt lat="37.529191971" lon="-122.275148630">
</trkpt>
<trkpt lat="37.529240847" lon="-122.274718881">
</trkpt>
<trkpt lat="37.529240847" lon="-122.274227738">
</trkpt>
<trkpt lat="37.529240847" lon="-122.273736596">
</trkpt>
<trkpt lat="37.529240847" lon="-122.273245454">
</trkpt>
<trkpt lat="37.529240847" lon="-122.272815704">
</trkpt>
<trkpt lat="37.529240847" lon="-122.272385955">
</trkpt>
<trkpt lat="37.529240847" lon="-122.271956205">
</trkpt>
<trkpt lat="37.529240847" lon="-122.271587849">
</trkpt>
<trkpt lat="37.529240847" lon="-122.271219492">
</trkpt>
<trkpt lat="37.529240847" lon="-122.270851135">
</trkpt>
<trkpt lat="37.529240847" lon="-122.270359993">
</trkpt>
<trkpt lat="37.529240847" lon="-122.269930243">
</trkpt>
<trkpt lat="37.529240847" lon="-122.269561887">
</trkpt>
<trkpt lat="37.529240847" lon="-122.269193530">
</trkpt>
<trkpt lat="37.529240847" lon="-122.268825173">
</trkpt>
<trkpt lat="37.529240847" lon="-122.268456817">
</trkpt>
<trkpt lat="37.529240847" lon="-122.268088460">
</trkpt>
<trkpt lat="37.529240847" lon="-122.267720103">
</trkpt>
<trkpt lat="37.529240847" lon="-122.267351747">
</trkpt>
<trkpt lat="37.529240847" lon="-122.266983390">
</trkpt>
<trkpt lat="37.529240847" lon="-122.266615033">
</trkpt>
<trkpt lat="37.529240847" lon="-122.266246676">
</trkpt>
<trkpt lat="37.529191971" lon="-122.265878320">
</trkpt>
<trkpt lat="37.529094219" lon="-122.265509963">
</trkpt>
<trkpt lat="37.529094219" lon="-122.265141606">
</trkpt>
<trkpt lat="37.529045343" lon="-122.264773250">
</trkpt>
<trkpt lat="37.528947592" lon="-122.264404893">
</trkpt>
<trkpt lat="37.528947592" lon="-122.264036536">
</trkpt>
<trkpt lat="37.528898716" lon="-122.263668180">
</trkpt>
<trkpt lat="37.528849840" lon="-122.263299823">
</trkpt>
</trkseg>
</trk>
<trk>
  <name>red thin</name>
  <desc>Style=Red Thin, Width=2, Dashed=0, Color=#ff0000</desc>
<number>6</number>
<trkseg>
<trkpt lat="37.530853748" lon="-122.292277217">
</trkpt>
<trkpt lat="37.530853748" lon="-122.291908860">
</trkpt>
<trkpt lat="37.530902624" lon="-122.291540504">
</trkpt>
<trkpt lat="37.530902624" lon="-122.291172147">
</trkpt>
<trkpt lat="37.530951500" lon="-122.290803790">
</trkpt>
<trkpt lat="37.530951500" lon="-122.290374041">
</trkpt>
<trkpt lat="37.530951500" lon="-122.290005684">
</trkpt>
<trkpt lat="37.530951500" lon="-122.289637327">
</trkpt>
<trkpt lat="37.531000376" lon="-122.289207578">
</trkpt>
<trkpt lat="37.531000376" lon="-122.288839221">
</trkpt>
<trkpt lat="37.531000376" lon="-122.288470864">
</trkpt>
<trkpt lat="37.531000376" lon="-122.288041115">
</trkpt>
<trkpt lat="37.531000376" lon="-122.287672758">
</trkpt>
<trkpt lat="37.531000376" lon="-122.287243009">
</trkpt>
<trkpt lat="37.531000376" lon="-122.286813259">
</trkpt>
<trkpt lat="37.531000376" lon="-122.286383510">
</trkpt>
<trkpt lat="37.531000376" lon="-122.285953760">
</trkpt>
<trkpt lat="37.531000376" lon="-122.285524011">
</trkpt>
<trkpt lat="37.531000376" lon="-122.285094261">
</trkpt>
<trkpt lat="37.531049252" lon="-122.284664512">
</trkpt>
<trkpt lat="37.531049252" lon="-122.284296155">
</trkpt>
<trkpt lat="37.531049252" lon="-122.283866405">
</trkpt>
<trkpt lat="37.531049252" lon="-122.283436656">
</trkpt>
<trkpt lat="37.531049252" lon="-122.283006907">
</trkpt>
<trkpt lat="37.531049252" lon="-122.282638550">
</trkpt>
<trkpt lat="37.531049252" lon="-122.282208800">
</trkpt>
<trkpt lat="37.531049252" lon="-122.281779051">
</trkpt>
<trkpt lat="37.531049252" lon="-122.281349301">
</trkpt>
<trkpt lat="37.531049252" lon="-122.280980945">
</trkpt>
<trkpt lat="37.531098127" lon="-122.280551195">
</trkpt>
<trkpt lat="37.531098127" lon="-122.280121446">
</trkpt>
<trkpt lat="37.531098127" lon="-122.279753089">
</trkpt>
<trkpt lat="37.531098127" lon="-122.279323339">
</trkpt>
<trkpt lat="37.531098127" lon="-122.278954983">
</trkpt>
<trkpt lat="37.531098127" lon="-122.278586626">
</trkpt>
<trkpt lat="37.531147003" lon="-122.278156877">
</trkpt>
<trkpt lat="37.531147003" lon="-122.277727127">
</trkpt>
<trkpt lat="37.531195879" lon="-122.277358770">
</trkpt>
<trkpt lat="37.531195879" lon="-122.276990414">
</trkpt>
<trkpt lat="37.531195879" lon="-122.276622057">
</trkpt>
<trkpt lat="37.531195879" lon="-122.276192307">
</trkpt>
<trkpt lat="37.531195879" lon="-122.275823951">
</trkpt>
<trkpt lat="37.531195879" lon="-122.275455594">
</trkpt>
<trkpt lat="37.531195879" lon="-122.275025845">
</trkpt>
<trkpt lat="37.531195879" lon="-122.274596095">
</trkpt>
<trkpt lat="37.531195879" lon="-122.274166346">
</trkpt>
<trkpt lat="37.531195879" lon="-122.273797989">
</trkpt>
<trkpt lat="37.531147003" lon="-122.273368239">
</trkpt>
<trkpt lat="37.531147003" lon="-122.272999883">
</trkpt>
<trkpt lat="37.531098127" lon="-122.272570133">
</trkpt>
<trkpt lat="37.531098127" lon="-122.272201777">
</trkpt>
<trkpt lat="37.531098127" lon="-122.271772027">
</trkpt>
<trkpt lat="37.531098127" lon="-122.271403670">
</trkpt>
<trkpt lat="37.531098127" lon="-122.271035314">
</trkpt>
<trkpt lat="37.531098127" lon="-122.270666957">
</trkpt>
<trkpt lat="37.531098127" lon="-122.270298600">
</trkpt>
<trkpt lat="37.531098127" lon="-122.269930243">
</trkpt>
<trkpt lat="37.531098127" lon="-122.269561887">
</trkpt>
<trkpt lat="37.531098127" lon="-122.269193530">
</trkpt>
<trkpt lat="37.531098127" lon="-122.268763781">
</trkpt>
<trkpt lat="37.531098127" lon="-122.268272638">
</trkpt>
<trkpt lat="37.531098127" lon="-122.267842889">
</trkpt>
<trkpt lat="37.531098127" lon="-122.267413139">
</trkpt>
<trkpt lat="37.531049252" lon="-122.266983390">
</trkpt>
<trkpt lat="37.531049252" lon="-122.266615033">
</trkpt>
<trkpt lat="37.531049252" lon="-122.266246676">
</trkpt>
<trkpt lat="37.531000376" lon="-122.265816927">
</trkpt>
<trkpt lat="37.530951500" lon="-122.265325785">
</trkpt>
<trkpt lat="37.530951500" lon="-122.264957428">
</trkpt>
<trkpt lat="37.530951500" lon="-122.264589071">
</trkpt>
<trkpt lat="37.530951500" lon="-122.264159322">
</trkpt>
<trkpt lat="37.530951500" lon="-122.263668180">
</trkpt>
<trkpt lat="37.530951500" lon="-122.263299823">
</trkpt>
<trkpt lat="37.530951500" lon="-122.262931466">
</trkpt>
<trkpt lat="37.530951500" lon="-122.262563109">
</trkpt>
<trkpt lat="37.530951500" lon="-122.262194753">
</trkpt>
<trkpt lat="37.530951500" lon="-122.261826396">
</trkpt>
<trkpt lat="37.530951500" lon="-122.261458039">
</trkpt>
</trkseg>
</trk>
<trk>
  <name>red hair</name>
  <desc>Style=Red Hairline, Width=1, Dashed=0, Color=#ff0000</desc>
<number>7</number>
<trkseg>
<trkpt lat="37.533444166" lon="-122.292031646">
</trkpt>
<trkpt lat="37.533444166" lon="-122.291663289">
</trkpt>
<trkpt lat="37.533493042" lon="-122.291294932">
</trkpt>
<trkpt lat="37.533541918" lon="-122.290926576">
</trkpt>
<trkpt lat="37.533590794" lon="-122.290558219">
</trkpt>
<trkpt lat="37.533590794" lon="-122.290189862">
</trkpt>
<trkpt lat="37.533590794" lon="-122.289760113">
</trkpt>
<trkpt lat="37.533590794" lon="-122.289391756">
</trkpt>
<trkpt lat="37.533590794" lon="-122.288962007">
</trkpt>
<trkpt lat="37.533590794" lon="-122.288470864">
</trkpt>
<trkpt lat="37.533639669" lon="-122.287918329">
</trkpt>
<trkpt lat="37.533639669" lon="-122.287488580">
</trkpt>
<trkpt lat="37.533639669" lon="-122.287058830">
</trkpt>
<trkpt lat="37.533639669" lon="-122.286567688">
</trkpt>
<trkpt lat="37.533639669" lon="-122.286076546">
</trkpt>
<trkpt lat="37.533639669" lon="-122.285585403">
</trkpt>
<trkpt lat="37.533688545" lon="-122.285032868">
</trkpt>
<trkpt lat="37.533737421" lon="-122.284418941">
</trkpt>
<trkpt lat="37.533737421" lon="-122.283866405">
</trkpt>
<trkpt lat="37.533737421" lon="-122.283252478">
</trkpt>
<trkpt lat="37.533786297" lon="-122.282638550">
</trkpt>
<trkpt lat="37.533786297" lon="-122.282270193">
</trkpt>
<trkpt lat="37.533884048" lon="-122.281901836">
</trkpt>
<trkpt lat="37.533884048" lon="-122.281533480">
</trkpt>
<trkpt lat="37.533884048" lon="-122.281165123">
</trkpt>
<trkpt lat="37.533932924" lon="-122.280796766">
</trkpt>
<trkpt lat="37.533932924" lon="-122.280428410">
</trkpt>
<trkpt lat="37.533981800" lon="-122.280060053">
</trkpt>
<trkpt lat="37.533981800" lon="-122.279630303">
</trkpt>
<trkpt lat="37.533981800" lon="-122.279200554">
</trkpt>
<trkpt lat="37.533981800" lon="-122.278770804">
</trkpt>
<trkpt lat="37.533981800" lon="-122.278341055">
</trkpt>
<trkpt lat="37.533981800" lon="-122.277972698">
</trkpt>
<trkpt lat="37.533981800" lon="-122.277481556">
</trkpt>
<trkpt lat="37.533981800" lon="-122.277113199">
</trkpt>
<trkpt lat="37.533932924" lon="-122.276744843">
</trkpt>
<trkpt lat="37.533932924" lon="-122.276376486">
</trkpt>
<trkpt lat="37.533932924" lon="-122.276008129">
</trkpt>
<trkpt lat="37.533884048" lon="-122.275639772">
</trkpt>
<trkpt lat="37.533884048" lon="-122.275271416">
</trkpt>
<trkpt lat="37.533884048" lon="-122.274780273">
</trkpt>
<trkpt lat="37.533835173" lon="-122.274350524">
</trkpt>
<trkpt lat="37.533835173" lon="-122.273920774">
</trkpt>
<trkpt lat="37.533786297" lon="-122.273429632">
</trkpt>
<trkpt lat="37.533786297" lon="-122.273061275">
</trkpt>
<trkpt lat="37.533786297" lon="-122.272692919">
</trkpt>
<trkpt lat="37.533737421" lon="-122.272324562">
</trkpt>
<trkpt lat="37.533737421" lon="-122.271894813">
</trkpt>
<trkpt lat="37.533737421" lon="-122.271465063">
</trkpt>
<trkpt lat="37.533737421" lon="-122.271096706">
</trkpt>
<trkpt lat="37.533737421" lon="-122.270728350">
</trkpt>
<trkpt lat="37.533737421" lon="-122.270359993">
</trkpt>
<trkpt lat="37.533737421" lon="-122.269991636">
</trkpt>
<trkpt lat="37.533737421" lon="-122.269561887">
</trkpt>
<trkpt lat="37.533737421" lon="-122.269193530">
</trkpt>
<trkpt lat="37.533737421" lon="-122.268825173">
</trkpt>
<trkpt lat="37.533737421" lon="-122.268456817">
</trkpt>
<trkpt lat="37.533786297" lon="-122.268088460">
</trkpt>
<trkpt lat="37.533884048" lon="-122.267720103">
</trkpt>
<trkpt lat="37.533884048" lon="-122.267351747">
</trkpt>
<trkpt lat="37.533981800" lon="-122.266983390">
</trkpt>
<trkpt lat="37.534030676" lon="-122.266615033">
</trkpt>
<trkpt lat="37.534030676" lon="-122.266246676">
</trkpt>
<trkpt lat="37.534079552" lon="-122.265878320">
</trkpt>
<trkpt lat="37.534128428" lon="-122.265509963">
</trkpt>
<trkpt lat="37.534177303" lon="-122.265141606">
</trkpt>
<trkpt lat="37.534177303" lon="-122.264773250">
</trkpt>
<trkpt lat="37.534226179" lon="-122.264404893">
</trkpt>
<trkpt lat="37.534226179" lon="-122.264036536">
</trkpt>
<trkpt lat="37.534226179" lon="-122.263668180">
</trkpt>
<trkpt lat="37.534226179" lon="-122.263299823">
</trkpt>
<trkpt lat="37.534226179" lon="-122.262870073">
</trkpt>
<trkpt lat="37.534275055" lon="-122.262501717">
</trkpt>
<trkpt lat="37.534275055" lon="-122.262133360">
</trkpt>
<trkpt lat="37.534275055" lon="-122.261765003">
</trkpt>
<trkpt lat="37.534275055" lon="-122.261273861">
</trkpt>
<trkpt lat="37.534275055" lon="-122.260905504">
</trkpt>
<trkpt lat="37.534275055" lon="-122.260537148">
</trkpt>
<trkpt lat="37.534275055" lon="-122.260168791">
</trkpt>
<trkpt lat="37.534323931" lon="-122.259800434">
</trkpt>
<trkpt lat="37.534323931" lon="-122.259432077">
</trkpt>
<trkpt lat="37.534226179" lon="-122.259063721">
</trkpt>
<trkpt lat="37.534226179" lon="-122.258695364">
</trkpt>
</trkseg>
</trk>
<trk>
  <name>thin dash</name>
  <desc>Style=Red Thin Dashed, Width=2, Dashed=1, Color=#ff0000</desc>
<number>8</number>
<trkseg>
<trkpt lat="37.535985708" lon="-122.291663289">
</trkpt>
<trkpt lat="37.536083460" lon="-122.291294932">
</trkpt>
<trkpt lat="37.536083460" lon="-122.290865183">
</trkpt>
<trkpt lat="37.536083460" lon="-122.290496826">
</trkpt>
<trkpt lat="37.536083460" lon="-122.290128469">
</trkpt>
<trkpt lat="37.536083460" lon="-122.289760113">
</trkpt>
<trkpt lat="37.536083460" lon="-122.289391756">
</trkpt>
<trkpt lat="37.536083460" lon="-122.288962007">
</trkpt>
<trkpt lat="37.536083460" lon="-122.288593650">
</trkpt>
<trkpt lat="37.536083460" lon="-122.288102508">
</trkpt>
<trkpt lat="37.536132336" lon="-122.287734151">
</trkpt>
<trkpt lat="37.536132336" lon="-122.287304401">
</trkpt>
<trkpt lat="37.536181211" lon="-122.286874652">
</trkpt>
<trkpt lat="37.536181211" lon="-122.286444902">
</trkpt>
<trkpt lat="37.536230087" lon="-122.286076546">
</trkpt>
<trkpt lat="37.536230087" lon="-122.285708189">
</trkpt>
<trkpt lat="37.536230087" lon="-122.285339832">
</trkpt>
<trkpt lat="37.536230087" lon="-122.284910083">
</trkpt>
<trkpt lat="37.536230087" lon="-122.284418941">
</trkpt>
<trkpt lat="37.536230087" lon="-122.284050584">
</trkpt>
<trkpt lat="37.536230087" lon="-122.283682227">
</trkpt>
<trkpt lat="37.536230087" lon="-122.283252478">
</trkpt>
<trkpt lat="37.536278963" lon="-122.282761335">
</trkpt>
<trkpt lat="37.536327839" lon="-122.282270193">
</trkpt>
<trkpt lat="37.536327839" lon="-122.281779051">
</trkpt>
<trkpt lat="37.536327839" lon="-122.281410694">
</trkpt>
<trkpt lat="37.536327839" lon="-122.281042337">
</trkpt>
<trkpt lat="37.536327839" lon="-122.280551195">
</trkpt>
<trkpt lat="37.536327839" lon="-122.280182838">
</trkpt>
<trkpt lat="37.536327839" lon="-122.279814482">
</trkpt>
<trkpt lat="37.536327839" lon="-122.279446125">
</trkpt>
<trkpt lat="37.536327839" lon="-122.279077768">
</trkpt>
<trkpt lat="37.536327839" lon="-122.278709412">
</trkpt>
<trkpt lat="37.536327839" lon="-122.278341055">
</trkpt>
<trkpt lat="37.536327839" lon="-122.277972698">
</trkpt>
<trkpt lat="37.536327839" lon="-122.277481556">
</trkpt>
<trkpt lat="37.536327839" lon="-122.277113199">
</trkpt>
<trkpt lat="37.536327839" lon="-122.276744843">
</trkpt>
<trkpt lat="37.536327839" lon="-122.276253700">
</trkpt>
<trkpt lat="37.536327839" lon="-122.275762558">
</trkpt>
<trkpt lat="37.536327839" lon="-122.275394201">
</trkpt>
<trkpt lat="37.536327839" lon="-122.275025845">
</trkpt>
<trkpt lat="37.536327839" lon="-122.274534702">
</trkpt>
<trkpt lat="37.536327839" lon="-122.274166346">
</trkpt>
<trkpt lat="37.536327839" lon="-122.273675203">
</trkpt>
<trkpt lat="37.536327839" lon="-122.273184061">
</trkpt>
<trkpt lat="37.536327839" lon="-122.272692919">
</trkpt>
<trkpt lat="37.536327839" lon="-122.272263169">
</trkpt>
<trkpt lat="37.536376715" lon="-122.271833420">
</trkpt>
<trkpt lat="37.536376715" lon="-122.271465063">
</trkpt>
<trkpt lat="37.536376715" lon="-122.271096706">
</trkpt>
<trkpt lat="37.536376715" lon="-122.270728350">
</trkpt>
<trkpt lat="37.536376715" lon="-122.270359993">
</trkpt>
<trkpt lat="37.536425591" lon="-122.269930243">
</trkpt>
<trkpt lat="37.536425591" lon="-122.269561887">
</trkpt>
<trkpt lat="37.536425591" lon="-122.269193530">
</trkpt>
<trkpt lat="37.536425591" lon="-122.268763781">
</trkpt>
<trkpt lat="37.536425591" lon="-122.268395424">
</trkpt>
<trkpt lat="37.536376715" lon="-122.268027067">
</trkpt>
<trkpt lat="37.536376715" lon="-122.267658710">
</trkpt>
<trkpt lat="37.536376715" lon="-122.267290354">
</trkpt>
<trkpt lat="37.536376715" lon="-122.266921997">
</trkpt>
<trkpt lat="37.536376715" lon="-122.266553640">
</trkpt>
<trkpt lat="37.536376715" lon="-122.266185284">
</trkpt>
<trkpt lat="37.536376715" lon="-122.265816927">
</trkpt>
<trkpt lat="37.536376715" lon="-122.265448570">
</trkpt>
<trkpt lat="37.536376715" lon="-122.265080214">
</trkpt>
<trkpt lat="37.536327839" lon="-122.264711857">
</trkpt>
<trkpt lat="37.536327839" lon="-122.264343500">
</trkpt>
<trkpt lat="37.536327839" lon="-122.263975143">
</trkpt>
<trkpt lat="37.536278963" lon="-122.263606787">
</trkpt>
<trkpt lat="37.536278963" lon="-122.263238430">
</trkpt>
<trkpt lat="37.536278963" lon="-122.262870073">
</trkpt>
<trkpt lat="37.536278963" lon="-122.262501717">
</trkpt>
<trkpt lat="37.536278963" lon="-122.262133360">
</trkpt>
<trkpt lat="37.536278963" lon="-122.261765003">
</trkpt>
<trkpt lat="37.536278963" lon="-122.261396646">
</trkpt>
<trkpt lat="37.536278963" lon="-122.261028290">
</trkpt>
<trkpt lat="37.536230087" lon="-122.260659933">
</trkpt>
<trkpt lat="37.536230087" lon="-122.260291576">
</trkpt>
<trkpt lat="37.536132336" lon="-122.259923220">
</trkpt>
<trkpt lat="37.536132336" lon="-122.259554863">
</trkpt>
<trkpt lat="37.536132336" lon="-122.259186506">
</trkpt>
</trkseg>
</trk>
<trk>
  <name>hair dash</name>
  <desc>Style=Red Hairline Dashed, Width=1, Dashed=1, Color=#ff0000</desc>
<number>9</number>
<trkseg>
<trkpt lat="37.538136244" lon="-122.291540504">
</trkpt>
<trkpt lat="37.538233995" lon="-122.291172147">
</trkpt>
<trkpt lat="37.538233995" lon="-122.290803790">
</trkpt>
<trkpt lat="37.538282871" lon="-122.290435433">
</trkpt>
<trkpt lat="37.538282871" lon="-122.290067077">
</trkpt>
<trkpt lat="37.538282871" lon="-122.289698720">
</trkpt>
<trkpt lat="37.538282871" lon="-122.289268970">
</trkpt>
<trkpt lat="37.538282871" lon="-122.288777828">
</trkpt>
<trkpt lat="37.538331747" lon="-122.288409472">
</trkpt>
<trkpt lat="37.538331747" lon="-122.287979722">
</trkpt>
<trkpt lat="37.538331747" lon="-122.287549973">
</trkpt>
<trkpt lat="37.538331747" lon="-122.287120223">
</trkpt>
<trkpt lat="37.538331747" lon="-122.286751866">
</trkpt>
<trkpt lat="37.538331747" lon="-122.286322117">
</trkpt>
<trkpt lat="37.538331747" lon="-122.285830975">
</trkpt>
<trkpt lat="37.538331747" lon="-122.285401225">
</trkpt>
<trkpt lat="37.538331747" lon="-122.284910083">
</trkpt>
<trkpt lat="37.538331747" lon="-122.284541726">
</trkpt>
<trkpt lat="37.538331747" lon="-122.284111977">
</trkpt>
<trkpt lat="37.538331747" lon="-122.283682227">
</trkpt>
<trkpt lat="37.538331747" lon="-122.283252478">
</trkpt>
<trkpt lat="37.538331747" lon="-122.282884121">
</trkpt>
<trkpt lat="37.538331747" lon="-122.282454371">
</trkpt>
<trkpt lat="37.538331747" lon="-122.282024622">
</trkpt>
<trkpt lat="37.538331747" lon="-122.281594872">
</trkpt>
<trkpt lat="37.538331747" lon="-122.281165123">
</trkpt>
<trkpt lat="37.538331747" lon="-122.280673981">
</trkpt>
<trkpt lat="37.538331747" lon="-122.280244231">
</trkpt>
<trkpt lat="37.538331747" lon="-122.279753089">
</trkpt>
<trkpt lat="37.538331747" lon="-122.279384732">
</trkpt>
<trkpt lat="37.538331747" lon="-122.279016376">
</trkpt>
<trkpt lat="37.538331747" lon="-122.278525233">
</trkpt>
<trkpt lat="37.538331747" lon="-122.277972698">
</trkpt>
<trkpt lat="37.538331747" lon="-122.277604342">
</trkpt>
<trkpt lat="37.538331747" lon="-122.277174592">
</trkpt>
<trkpt lat="37.538331747" lon="-122.276806235">
</trkpt>
<trkpt lat="37.538331747" lon="-122.276437879">
</trkpt>
<trkpt lat="37.538331747" lon="-122.276069522">
</trkpt>
<trkpt lat="37.538331747" lon="-122.275701165">
</trkpt>
<trkpt lat="37.538331747" lon="-122.275332808">
</trkpt>
<trkpt lat="37.538331747" lon="-122.274964452">
</trkpt>
<trkpt lat="37.538331747" lon="-122.274534702">
</trkpt>
<trkpt lat="37.538331747" lon="-122.274043560">
</trkpt>
<trkpt lat="37.538331747" lon="-122.273675203">
</trkpt>
<trkpt lat="37.538331747" lon="-122.273306847">
</trkpt>
<trkpt lat="37.538331747" lon="-122.272938490">
</trkpt>
<trkpt lat="37.538331747" lon="-122.272447348">
</trkpt>
<trkpt lat="37.538380623" lon="-122.272017598">
</trkpt>
<trkpt lat="37.538380623" lon="-122.271649241">
</trkpt>
<trkpt lat="37.538380623" lon="-122.271158099">
</trkpt>
<trkpt lat="37.538380623" lon="-122.270789742">
</trkpt>
<trkpt lat="37.538380623" lon="-122.270359993">
</trkpt>
<trkpt lat="37.538380623" lon="-122.269991636">
</trkpt>
<trkpt lat="37.538380623" lon="-122.269623280">
</trkpt>
<trkpt lat="37.538429499" lon="-122.269193530">
</trkpt>
<trkpt lat="37.538429499" lon="-122.268825173">
</trkpt>
<trkpt lat="37.538429499" lon="-122.268395424">
</trkpt>
<trkpt lat="37.538478374" lon="-122.267965674">
</trkpt>
<trkpt lat="37.538478374" lon="-122.267535925">
</trkpt>
<trkpt lat="37.538478374" lon="-122.267167568">
</trkpt>
<trkpt lat="37.538478374" lon="-122.266799212">
</trkpt>
<trkpt lat="37.538478374" lon="-122.266369462">
</trkpt>
<trkpt lat="37.538527250" lon="-122.265939713">
</trkpt>
<trkpt lat="37.538527250" lon="-122.265571356">
</trkpt>
<trkpt lat="37.538527250" lon="-122.265202999">
</trkpt>
<trkpt lat="37.538527250" lon="-122.264834642">
</trkpt>
<trkpt lat="37.538527250" lon="-122.264466286">
</trkpt>
<trkpt lat="37.538576126" lon="-122.264097929">
</trkpt>
<trkpt lat="37.538576126" lon="-122.263729572">
</trkpt>
<trkpt lat="37.538625002" lon="-122.263361216">
</trkpt>
<trkpt lat="37.538625002" lon="-122.262992859">
</trkpt>
<trkpt lat="37.538625002" lon="-122.262563109">
</trkpt>
<trkpt lat="37.538625002" lon="-122.262194753">
</trkpt>
<trkpt lat="37.538625002" lon="-122.261765003">
</trkpt>
<trkpt lat="37.538625002" lon="-122.261396646">
</trkpt>
<trkpt lat="37.538625002" lon="-122.261028290">
</trkpt>
<trkpt lat="37.538625002" lon="-122.260659933">
</trkpt>
</trkseg>
</trk>
<trk>
  <name>green med</name>
  <desc>Style=Green Medium, Width=3, Dashed=0, Color=#008000</desc>
<number>10</number>
<trkseg>
<trkpt lat="37.517950535" lon="-122.291847467">
</trkpt>
<trkpt lat="37.517901659" lon="-122.291479111">
</trkpt>
<trkpt lat="37.517901659" lon="-122.291049361">
</trkpt>
<trkpt lat="37.517901659" lon="-122.290619612">
</trkpt>
<trkpt lat="37.517901659" lon="-122.290128469">
</trkpt>
<trkpt lat="37.517901659" lon="-122.289637327">
</trkpt>
<trkpt lat="37.517901659" lon="-122.289207578">
</trkpt>
<trkpt lat="37.517901659" lon="-122.288839221">
</trkpt>
<trkpt lat="37.517901659" lon="-122.288470864">
</trkpt>
<trkpt lat="37.517950535" lon="-122.288041115">
</trkpt>
<trkpt lat="37.517999411" lon="-122.287549973">
</trkpt>
<trkpt lat="37.517999411" lon="-122.287181616">
</trkpt>
<trkpt lat="37.517999411" lon="-122.286813259">
</trkpt>
<trkpt lat="37.517999411" lon="-122.286322117">
</trkpt>
<trkpt lat="37.517999411" lon="-122.285953760">
</trkpt>
<trkpt lat="37.517999411" lon="-122.285524011">
</trkpt>
<trkpt lat="37.517999411" lon="-122.285155654">
</trkpt>
<trkpt lat="37.517950535" lon="-122.284787297">
</trkpt>
<trkpt lat="37.517901659" lon="-122.284296155">
</trkpt>
<trkpt lat="37.517901659" lon="-122.283805013">
</trkpt>
<trkpt lat="37.517852783" lon="-122.283313870">
</trkpt>
<trkpt lat="37.517852783" lon="-122.282945514">
</trkpt>
<trkpt lat="37.517803907" lon="-122.282577157">
</trkpt>
<trkpt lat="37.517755032" lon="-122.282208800">
</trkpt>
<trkpt lat="37.517755032" lon="-122.281840444">
</trkpt>
<trkpt lat="37.517755032" lon="-122.281472087">
</trkpt>
<trkpt lat="37.517755032" lon="-122.281103730">
</trkpt>
<trkpt lat="37.517706156" lon="-122.280735373">
</trkpt>
<trkpt lat="37.517706156" lon="-122.280305624">
</trkpt>
<trkpt lat="37.517706156" lon="-122.279937267">
</trkpt>
<trkpt lat="37.517706156" lon="-122.279507518">
</trkpt>
<trkpt lat="37.517657280" lon="-122.279016376">
</trkpt>
<trkpt lat="37.517608404" lon="-122.278648019">
</trkpt>
<trkpt lat="37.517559528" lon="-122.278279662">
</trkpt>
<trkpt lat="37.517559528" lon="-122.277911305">
</trkpt>
<trkpt lat="37.517510653" lon="-122.277420163">
</trkpt>
<trkpt lat="37.517510653" lon="-122.277051806">
</trkpt>
<trkpt lat="37.517510653" lon="-122.276683450">
</trkpt>
<trkpt lat="37.517461777" lon="-122.276315093">
</trkpt>
<trkpt lat="37.517412901" lon="-122.275946736">
</trkpt>
<trkpt lat="37.517412901" lon="-122.275578380">
</trkpt>
<trkpt lat="37.517412901" lon="-122.275210023">
</trkpt>
<trkpt lat="37.517412901" lon="-122.274841666">
</trkpt>
<trkpt lat="37.517412901" lon="-122.274473310">
</trkpt>
<trkpt lat="37.517412901" lon="-122.274104953">
</trkpt>
<trkpt lat="37.517315149" lon="-122.273613811">
</trkpt>
<trkpt lat="37.517315149" lon="-122.273122668">
</trkpt>
<trkpt lat="37.517266273" lon="-122.272631526">
</trkpt>
<trkpt lat="37.517266273" lon="-122.272263169">
</trkpt>
<trkpt lat="37.517266273" lon="-122.271894813">
</trkpt>
<trkpt lat="37.517217398" lon="-122.271465063">
</trkpt>
<trkpt lat="37.517217398" lon="-122.271096706">
</trkpt>
<trkpt lat="37.517168522" lon="-122.270605564">
</trkpt>
<trkpt lat="37.517119646" lon="-122.270114422">
</trkpt>
<trkpt lat="37.517119646" lon="-122.269684672">
</trkpt>
<trkpt lat="37.517119646" lon="-122.269254923">
</trkpt>
<trkpt lat="37.517119646" lon="-122.268886566">
</trkpt>
<trkpt lat="37.517119646" lon="-122.268395424">
</trkpt>
<trkpt lat="37.517119646" lon="-122.268027067">
</trkpt>
<trkpt lat="37.517119646" lon="-122.267658710">
</trkpt>
<trkpt lat="37.517119646" lon="-122.267290354">
</trkpt>
<trkpt lat="37.517119646" lon="-122.266860604">
</trkpt>
<trkpt lat="37.517070770" lon="-122.266492248">
</trkpt>
<trkpt lat="37.517070770" lon="-122.266123891">
</trkpt>
<trkpt lat="37.517070770" lon="-122.265755534">
</trkpt>
<trkpt lat="37.517070770" lon="-122.265387177">
</trkpt>
<trkpt lat="37.517070770" lon="-122.265018821">
</trkpt>
<trkpt lat="37.517070770" lon="-122.264650464">
</trkpt>
<trkpt lat="37.517070770" lon="-122.264282107">
</trkpt>
<trkpt lat="37.517070770" lon="-122.263913751">
</trkpt>
<trkpt lat="37.517070770" lon="-122.263484001">
</trkpt>
<trkpt lat="37.517070770" lon="-122.263054252">
</trkpt>
<trkpt lat="37.517070770" lon="-122.262685895">
</trkpt>
<trkpt lat="37.517168522" lon="-122.262317538">
</trkpt>
<trkpt lat="37.517315149" lon="-122.261949182">
</trkpt>
</trkseg>
</trk>
<trk>
  <name>purple med</name>
  <desc>Style=Purple Medium, Width=3, Dashed=0, Color=#800080</desc>
<number>11</number>
<trkseg>
<trkpt lat="37.513160706" lon="-122.291110754">
</trkpt>
<trkpt lat="37.513160706" lon="-122.290742397">
</trkpt>
<trkpt lat="37.513160706" lon="-122.290374041">
</trkpt>
<trkpt lat="37.513160706" lon="-122.290005684">
</trkpt>
<trkpt lat="37.513160706" lon="-122.289637327">
</trkpt>
<trkpt lat="37.513209581" lon="-122.289207578">
</trkpt>
<trkpt lat="37.513209581" lon="-122.288716435">
</trkpt>
<trkpt lat="37.513258457" lon="-122.288348079">
</trkpt>
<trkpt lat="37.513258457" lon="-122.287979722">
</trkpt>
<trkpt lat="37.513258457" lon="-122.287611365">
</trkpt>
<trkpt lat="37.513307333" lon="-122.287243009">
</trkpt>
<trkpt lat="37.513307333" lon="-122.286874652">
</trkpt>
<trkpt lat="37.513307333" lon="-122.286506295">
</trkpt>
<trkpt lat="37.513356209" lon="-122.286137938">
</trkpt>
<trkpt lat="37.513356209" lon="-122.285646796">
</trkpt>
<trkpt lat="37.513356209" lon="-122.285217047">
</trkpt>
<trkpt lat="37.513356209" lon="-122.284848690">
</trkpt>
<trkpt lat="37.513356209" lon="-122.284418941">
</trkpt>
<trkpt lat="37.513356209" lon="-122.283989191">
</trkpt>
<trkpt lat="37.513356209" lon="-122.283559442">
</trkpt>
<trkpt lat="37.513356209" lon="-122.283191085">
</trkpt>
<trkpt lat="37.513356209" lon="-122.282822728">
</trkpt>
<trkpt lat="37.513356209" lon="-122.282454371">
</trkpt>
<trkpt lat="37.513356209" lon="-122.282086015">
</trkpt>
<trkpt lat="37.513307333" lon="-122.281594872">
</trkpt>
<trkpt lat="37.513307333" lon="-122.281226516">
</trkpt>
<trkpt lat="37.513307333" lon="-122.280858159">
</trkpt>
<trkpt lat="37.513258457" lon="-122.280489802">
</trkpt>
<trkpt lat="37.513258457" lon="-122.280121446">
</trkpt>
<trkpt lat="37.513258457" lon="-122.279568911">
</trkpt>
<trkpt lat="37.513258457" lon="-122.279077768">
</trkpt>
<trkpt lat="37.513258457" lon="-122.278709412">
</trkpt>
<trkpt lat="37.513258457" lon="-122.278218269">
</trkpt>
<trkpt lat="37.513258457" lon="-122.277849913">
</trkpt>
<trkpt lat="37.513258457" lon="-122.277420163">
</trkpt>
<trkpt lat="37.513258457" lon="-122.276990414">
</trkpt>
<trkpt lat="37.513209581" lon="-122.276622057">
</trkpt>
<trkpt lat="37.513209581" lon="-122.276253700">
</trkpt>
<trkpt lat="37.513209581" lon="-122.275885344">
</trkpt>
<trkpt lat="37.513209581" lon="-122.275516987">
</trkpt>
<trkpt lat="37.513209581" lon="-122.275087237">
</trkpt>
<trkpt lat="37.513209581" lon="-122.274718881">
</trkpt>
<trkpt lat="37.513209581" lon="-122.274289131">
</trkpt>
<trkpt lat="37.513209581" lon="-122.273859382">
</trkpt>
<trkpt lat="37.513209581" lon="-122.273491025">
</trkpt>
<trkpt lat="37.513209581" lon="-122.273061275">
</trkpt>
<trkpt lat="37.513209581" lon="-122.272692919">
</trkpt>
<trkpt lat="37.513209581" lon="-122.272324562">
</trkpt>
<trkpt lat="37.513209581" lon="-122.271956205">
</trkpt>
<trkpt lat="37.513209581" lon="-122.271587849">
</trkpt>
<trkpt lat="37.513258457" lon="-122.271219492">
</trkpt>
<trkpt lat="37.513258457" lon="-122.270851135">
</trkpt>
<trkpt lat="37.513258457" lon="-122.270482779">
</trkpt>
<trkpt lat="37.513258457" lon="-122.270114422">
</trkpt>
<trkpt lat="37.513258457" lon="-122.269746065">
</trkpt>
<trkpt lat="37.513258457" lon="-122.269377708">
</trkpt>
<trkpt lat="37.513258457" lon="-122.269009352">
</trkpt>
<trkpt lat="37.513258457" lon="-122.268640995">
</trkpt>
<trkpt lat="37.513258457" lon="-122.268272638">
</trkpt>
<trkpt lat="37.513258457" lon="-122.267904282">
</trkpt>
<trkpt lat="37.513258457" lon="-122.267535925">
</trkpt>
<trkpt lat="37.513258457" lon="-122.267167568">
</trkpt>
<trkpt lat="37.513258457" lon="-122.266799212">
</trkpt>
<trkpt lat="37.513258457" lon="-122.266430855">
</trkpt>
<trkpt lat="37.513258457" lon="-122.266062498">
</trkpt>
<trkpt lat="37.513258457" lon="-122.265694141">
</trkpt>
<trkpt lat="37.513307333" lon="-122.265325785">
</trkpt>
<trkpt lat="37.513307333" lon="-122.264957428">
</trkpt>
<trkpt lat="37.513307333" lon="-122.264589071">
</trkpt>
<trkpt lat="37.513307333" lon="-122.264220715">
</trkpt>
<trkpt lat="37.513307333" lon="-122.263852358">
</trkpt>
<trkpt lat="37.513307333" lon="-122.263484001">
</trkpt>
<trkpt lat="37.513307333" lon="-122.263115644">
</trkpt>
<trkpt lat="37.513307333" lon="-122.262747288">
</trkpt>
<trkpt lat="37.513258457" lon="-122.262378931">
</trkpt>
</trkseg>
</trk>
<trk>
  <name>white med</name>
  <desc>Style=White Medium, Width=3, Dashed=0, Color=#ffffff</desc>
<number>12</number>
<trkseg>
<trkpt lat="37.507930994" lon="-122.261028290">
</trkpt>
<trkpt lat="37.507930994" lon="-122.261396646">
</trkpt>
<trkpt lat="37.507930994" lon="-122.261765003">
</trkpt>
<trkpt lat="37.507930994" lon="-122.262133360">
</trkpt>
<trkpt lat="37.507930994" lon="-122.262563109">
</trkpt>
<trkpt lat="37.507930994" lon="-122.262992859">
</trkpt>
<trkpt lat="37.507930994" lon="-122.263361216">
</trkpt>
<trkpt lat="37.507930994" lon="-122.263790965">
</trkpt>
<trkpt lat="37.507930994" lon="-122.264220715">
</trkpt>
<trkpt lat="37.507930994" lon="-122.264650464">
</trkpt>
<trkpt lat="37.507979870" lon="-122.265018821">
</trkpt>
<trkpt lat="37.507979870" lon="-122.265387177">
</trkpt>
<trkpt lat="37.508028746" lon="-122.265755534">
</trkpt>
<trkpt lat="37.508077621" lon="-122.266123891">
</trkpt>
<trkpt lat="37.508077621" lon="-122.266492248">
</trkpt>
<trkpt lat="37.508077621" lon="-122.266492248">
</trkpt>
<trkpt lat="37.508077621" lon="-122.266921997">
</trkpt>
<trkpt lat="37.508077621" lon="-122.267290354">
</trkpt>
<trkpt lat="37.508077621" lon="-122.267290354">
</trkpt>
<trkpt lat="37.508077621" lon="-122.267720103">
</trkpt>
<trkpt lat="37.508077621" lon="-122.268088460">
</trkpt>
<trkpt lat="37.508077621" lon="-122.268518209">
</trkpt>
<trkpt lat="37.508077621" lon="-122.268947959">
</trkpt>
<trkpt lat="37.508077621" lon="-122.269377708">
</trkpt>
<trkpt lat="37.508077621" lon="-122.269746065">
</trkpt>
<trkpt lat="37.508077621" lon="-122.269746065">
</trkpt>
<trkpt lat="37.508126497" lon="-122.270175815">
</trkpt>
<trkpt lat="37.508126497" lon="-122.270605564">
</trkpt>
<trkpt lat="37.508175373" lon="-122.271035314">
</trkpt>
<trkpt lat="37.508224249" lon="-122.271465063">
</trkpt>
<trkpt lat="37.508224249" lon="-122.271833420">
</trkpt>
<trkpt lat="37.508224249" lon="-122.272201777">
</trkpt>
<trkpt lat="37.508224249" lon="-122.272570133">
</trkpt>
<trkpt lat="37.508224249" lon="-122.272938490">
</trkpt>
<trkpt lat="37.508224249" lon="-122.273368239">
</trkpt>
<trkpt lat="37.508224249" lon="-122.273368239">
</trkpt>
<trkpt lat="37.508224249" lon="-122.273736596">
</trkpt>
<trkpt lat="37.508224249" lon="-122.274104953">
</trkpt>
<trkpt lat="37.508224249" lon="-122.274534702">
</trkpt>
<trkpt lat="37.508224249" lon="-122.274534702">
</trkpt>
<trkpt lat="37.508224249" lon="-122.274903059">
</trkpt>
<trkpt lat="37.508224249" lon="-122.275271416">
</trkpt>
<trkpt lat="37.508224249" lon="-122.275701165">
</trkpt>
<trkpt lat="37.508224249" lon="-122.276069522">
</trkpt>
<trkpt lat="37.508224249" lon="-122.276437879">
</trkpt>
<trkpt lat="37.508224249" lon="-122.276867628">
</trkpt>
<trkpt lat="37.508224249" lon="-122.277235985">
</trkpt>
<trkpt lat="37.508224249" lon="-122.277604342">
</trkpt>
<trkpt lat="37.508224249" lon="-122.278034091">
</trkpt>
<trkpt lat="37.508224249" lon="-122.278463840">
</trkpt>
<trkpt lat="37.508224249" lon="-122.278893590">
</trkpt>
<trkpt lat="37.508224249" lon="-122.279261947">
</trkpt>
<trkpt lat="37.508224249" lon="-122.279691696">
</trkpt>
<trkpt lat="37.508224249" lon="-122.280060053">
</trkpt>
<trkpt lat="37.508224249" lon="-122.280428410">
</trkpt>
<trkpt lat="37.508224249" lon="-122.280796766">
</trkpt>
<trkpt lat="37.508224249" lon="-122.281165123">
</trkpt>
<trkpt lat="37.508224249" lon="-122.281533480">
</trkpt>
<trkpt lat="37.508224249" lon="-122.281901836">
</trkpt>
<trkpt lat="37.508175373" lon="-122.282270193">
</trkpt>
<trkpt lat="37.508175373" lon="-122.282638550">
</trkpt>
<trkpt lat="37.508126497" lon="-122.283006907">
</trkpt>
<trkpt lat="37.508126497" lon="-122.283375263">
</trkpt>
<trkpt lat="37.508126497" lon="-122.283743620">
</trkpt>
<trkpt lat="37.508077621" lon="-122.284111977">
</trkpt>
<trkpt lat="37.508077621" lon="-122.284480333">
</trkpt>
<trkpt lat="37.508077621" lon="-122.284848690">
</trkpt>
<trkpt lat="37.508028746" lon="-122.285217047">
</trkpt>
<trkpt lat="37.508028746" lon="-122.285585403">
</trkpt>
<trkpt lat="37.508028746" lon="-122.285953760">
</trkpt>
<trkpt lat="37.508028746" lon="-122.286322117">
</trkpt>
<trkpt lat="37.508028746" lon="-122.286690474">
</trkpt>
<trkpt lat="37.508028746" lon="-122.287058830">
</trkpt>
<trkpt lat="37.508028746" lon="-122.287427187">
</trkpt>
<trkpt lat="37.508028746" lon="-122.287795544">
</trkpt>
<trkpt lat="37.508028746" lon="-122.288163900">
</trkpt>
<trkpt lat="37.508028746" lon="-122.288532257">
</trkpt>
<trkpt lat="37.508028746" lon="-122.288900614">
</trkpt>
<trkpt lat="37.508028746" lon="-122.289268970">
</trkpt>
</trkseg>
</trk>
</gpx>
